{
    "data": [
        {
        "id": "001",
        "name": "Mauricio",
        "lastName": "Gómez",
        "secondLastName": "Urrutia"
        },{
        "id": "004",
        "name": "Pablo",
        "lastName": "López",
        "secondLastName": "Cordero"
        },{
            "id": "005",
            "name": "Sergio",
            "lastName": "Gavira",
            "secondLastName": "Viñas"
        },{
           "id": "006",
            "name": "Ana",
            "lastName": "Adame",
            "secondLastName": "Alcón"
        }
    ]
  }